*** Life<Cell> 11x11 ***

Generation = 0, Population = 19.
----0---00-
--00-----0-
-----------
-----------
----0--0---
-------0---
-----0---0-
----0-0----
-------000-
-----------
--0----0--0

*** Life<Cell> 11x5 ***

Generation = 0, Population = 11.
-----
---0-
-0---
--0--
---0-
--0--
-----
---0-
-00--
0---0
--0--

Generation = 18, Population = 20.
..***
*...*
-.*.*
-...*
**.*1
..***
..-.*
.....
.*.*.
.*...
.*.-.

Generation = 36, Population = 13.
.....
.....
.....
**...
.....
.....
..**.
.***.
.*..*
.*.**
...*.

*** Life<Cell> 20x6 ***

Generation = 0, Population = 33.
-00-00
0-----
----0-
--0---
---0-0
----00
0-----
0-0---
--000-
----0-
--0---
----0-
-0----
------
00--00
00----
---0--
------
--000-
00----

*** Life<Cell> 17x12 ***

Generation = 0, Population = 33.
---0--------
-----0---0--
----0-------
---0--------
--0---0----0
-------0----
-0---0--00--
-0-0---0----
-------0--0-
------------
-0--0---0---
-0----------
0--0-0---0--
-----------0
-----0--0---
--0---------
0-----0--0--

*** Life<Cell> 16x8 ***

Generation = 0, Population = 43.
-----0--
-00-0---
---0---0
0-0----0
-00--0--
----000-
--0-0---
0-00-0--
-00---0-
--0---0-
--00--0-
0--0-00-
---0-0--
0--00--0
---0----
--00--0-

*** Life<Cell> 12x17 ***

Generation = 0, Population = 1.
-----------------
-----------------
-----------------
--------------0--
-----------------
-----------------
-----------------
-----------------
-----------------
-----------------
-----------------
-----------------

Generation = 19, Population = 36.
0---0------------
-0-0-0-----------
----0-0-------0--
-0---0-0-----0-0-
----0-0-----0-0-0
-0-0-0-----0-0-0-
0---0-------0-0-0
-------------0-0-
-----------------
-------------0-0-
------------0---0
-----------0-----

Generation = 38, Population = 21.
-----------------
------0-0---0-0--
-----------------
----0---0-------0
-----------------
------0---0-0---0
-----------------
--------0-0-0-0--
-----------------
--------0-0-0----
-----------------
----------0-0-0--

Generation = 57, Population = 47.
0-0-0-0-0-0-0-0-0
-----------------
0-0-0---0-0-----0
-----0-0---0---0-
0-0-0---0--------
---------0-0---0-
--0-----0-----0--
-0-0---0---0-0---
--0-----0-----0--
---------0-0---0-
--0-----0--------
-0-0---0---0---0-

*** Life<Cell> 18x13 ***

Generation = 0, Population = 38.
-----------00
-------------
--0---0--0---
------------0
----0--0-----
----0--------
------00-----
-----------0-
--00---0---0-
-0---0------0
--0--0--0----
--0----------
00--0----0---
--0----0-----
---0--0------
---00---0----
---00-0------
------0------

*** Life<Cell> 8x5 ***

Generation = 0, Population = 25.
000-0
-0-0-
0000-
00000
0--0-
0--00
-00-0
0--0-

Generation = 27, Population = 7.
.***.
.*..*
...**
.-...
.....
.....
.-...
-....

*** Life<Cell> 20x5 ***

Generation = 0, Population = 63.
0-0--
00-00
0-0-0
000-0
-0--0
000-0
0000-
0-00-
--0--
0--00
0--00
00-00
0-0-0
0-0-0
-0--0
00000
--0-0
0000-
--0-0
00000

*** Life<Cell> 7x1 ***

Generation = 0, Population = 5.
0
0
-
0
0
-
0

*** Life<Cell> 16x5 ***

Generation = 0, Population = 27.
-000-
00---
---0-
0----
----0
-00--
0-0--
-0000
--0--
0----
--0--
0---0
-0-0-
00-0-
----0
-----

*** Life<Cell> 5x1 ***

Generation = 0, Population = 3.
0
0
0
-
-

Generation = 45, Population = 2.
-
0
.
-
1

*** Life<Cell> 5x7 ***

Generation = 0, Population = 10.
------0
--000--
--0----
0-0--00
---0---

*** Life<Cell> 13x13 ***

Generation = 0, Population = 70.
--0-0-----0--
00--00--0---0
-0--0---0---0
-0000---00-0-
-0000----0---
-0--0---0-00-
-000-0--0-00-
0--00-----0-0
00---0--0----
-00---00-0-0-
-00--0-0-0--0
---0--00000--
0------00000-

Generation = 7, Population = 75.
*00*.-011*--*
*-....1..1-.*
1..**-*--..1.
-....-..--.-1
-.1*1-.-1110-
*.*.--10*--11
-..-*-*-.1.*-
...-*.--0*1.-
--*--..*.*.--
11-.*-.-0**0-
..*-*1*-.-1.0
.011..*0.**1*
.101**.1.-*1*

Generation = 14, Population = 47.
.*-..01-...-.
*0.....**.-..
*....1.1-....
*.......*..11
-.-..-.-*1--.
...*-*--..-..
-.**.*......0
..*-..-.....-
...***.*.....
**.*.*.--*.*.
***-*-**.1*.*
.0-....-....*
........*-.**

Generation = 21, Population = 62.
**...*.....-.
*0...***..-..
**...1.......
**.....*****.
*..**1.*..-*.
**....1-.....
0...*.**.**.-
....*.-*.**.0
**..*..*.....
**..*..-...*.
.....**...**.
**...**.*....
**...***.*.*.

*** Life<Cell> 16x6 ***

Generation = 0, Population = 22.
-0----
----00
-0----
------
------
--00--
----00
-0----
-----0
-00---
--0---
---00-
-----0
-----0
0-0--0
---0-0

Generation = 40, Population = 6.
......
......
......
......
......
......
......
......
......
**....
......
**....
......
**....
......
-.-...

*** Life<Cell> 5x12 ***

Generation = 0, Population = 45.
-0000000000-
00-0--000-00
-0-00--00000
00-0-0-0-000
00000000000-

Generation = 15, Population = 24.
..-*.-*..*..
...*...1.*.-
***.....*-*.
-..*.****.*.
**-*.*.1.**.

Generation = 30, Population = 17.
......****..
....***..*..
....**..**..
-....**.*...
......**....

Generation = 45, Population = 11.
........**..
.......*..*.
....**.....*
-......*..*.
........**..

Generation = 60, Population = 10.
.....*.*....
....*...*...
....*...*...
-...*...*...
.....*.*....

Generation = 75, Population = 22.
...**...***.
...*.*.*...*
..*..*.*...*
-.*..*.*...*
..*.*...***.

*** Life<Cell> 4x14 ***

Generation = 0, Population = 32.
-0-00000-00-00
-0-0--0--00--0
-0-00-0-0--0--
000000---000-0

Generation = 39, Population = 7.
.....***......
.....*..*...-.
......**-.....
..-...........

*** Life<Cell> 1x1 ***

Generation = 0, Population = 1.
0

Generation = 44, Population = 0.
-

Generation = 88, Population = 0.
-

*** Life<Cell> 5x9 ***

Generation = 0, Population = 32.
-00-00-0-
00-000--0
-00000-00
0000-0-0-
00000000-

Generation = 46, Population = 5.
.*......-
*.*......
**.......
..-......
......-.-

*** Life<Cell> 10x2 ***

Generation = 0, Population = 12.
0-
0-
--
-0
0-
0-
-0
00
00
00

*** Life<Cell> 18x13 ***

Generation = 0, Population = 52.
---0---0-0-00
---0----0----
--0-0-0------
-00---0------
0------0-----
-0-0--00----0
0-----0----0-
-----0--0---0
-0-0--------0
----0--0-----
----00-------
--------0---0
-00--0-0-----
-000-0-0--0--
0-------0----
---------000-
---------0---
--0----------

Generation = 10, Population = 95.
-...*..**--.-
-11..*.-*-*0.
*-**0.....**.
*.*.1-...*-0*
0*.**1..*.-1*
*11*..*--.-11
--.**-.*.*-.1
-*00.-..0*.-1
.-1.**.*11...
.10.1*1...-*.
-*--1...-.1..
0....*--*.**.
.*1.1.-.-1-..
--*.-.-*1...-
-*..*.*-.-..*
-.1--*0**-...
.0.**--*....1
**..1.0..*1.*

Generation = 20, Population = 71.
1........-...
-......-*-*-.
.-.*-**...*..
...*.-..**.*.
-.....*.**.*.
......*.1.-..
.0*.*.*.*....
-*.-*...1*..*
.*...****....
.*-*****.***.
-.0..*..**...
1*...*.**....
**...*..0....
.....*.*....-
*.*......-...
.......**1*.*
..*......*..*
...**..*.*..*

*** Life<Cell> 11x12 ***

Generation = 0, Population = 9.
0-0---------
----0--0----
------------
------------
-0----------
----0-------
---------0--
---0--------
------------
------------
--------0---

Generation = 15, Population = 53.
-**..1--..-.
*...0....0.-
..1*.-...-1-
*.*..**010*1
1...1.*.*10*
**....-..*0-
.1.*-*.....*
*.1..*0.-..1
*--***-1*...
0.*-.1*...1-
...-.--**.10

Generation = 30, Population = 32.
0......-.***
..**...**...
*.**.-......
*.**...-*.**
.*......*...
..........**
.........*.*
...........*
......-..*.*
-..-**....**
...**-......

Generation = 45, Population = 14.
-....**.....
.....**.....
............
............
............
............
............
......**....
....*.*.*...
-..-....*...
...**-**....

Generation = 60, Population = 8.
-....**.....
.....**.....
............
............
............
............
............
............
....**......
-...**......
............

Generation = 75, Population = 8.
-....**.....
.....**.....
............
............
............
............
............
............
....**......
-...**......
............

Generation = 90, Population = 8.
-....**.....
.....**.....
............
............
............
............
............
............
....**......
-...**......
............

*** Life<Cell> 2x17 ***

Generation = 0, Population = 23.
0-0-0000000000---
---0-0-0000000-00

Generation = 23, Population = 7.
...........**-***
-.--...-...*---*-

Generation = 46, Population = 7.
...........**-***
-.--...-...*---*-

Generation = 69, Population = 7.
...........**-***
-.--...-...*---*-

*** Life<Cell> 15x17 ***

Generation = 0, Population = 27.
-00-------0----0-
0----------------
------------0----
------0--0--0----
-----------------
-----------------
---00-0----------
----------0------
-----00---------0
---0-------------
---------------00
0-----0-0----0---
--0--0-----------
-----------------
---0--------0----

Generation = 46, Population = 37.
.......**........
......***........
..***.*...*......
.*.**.....***....
.*..*....*..*...-
..****..*.***....
..**.*.*.........
.....*.*.........
.................
.................
.................
.................
..*..............
..*..............
-.*..............

*** Life<Cell> 8x19 ***

Generation = 0, Population = 28.
------0----0----0--
---0-0-0------0----
-----0-------0-----
-00------00---0---0
--------------0-0--
-0-----------0-----
00----------0------
----0-0--00-0-----0

Generation = 38, Population = 29.
...-*****..........
-.**.**..*...*.-.-.
..*...*....***.....
..**....**..**.....
...................
.................**
...............***.
...............**.-

Generation = 76, Population = 28.
.........*.*.......
-....*......*....1.
..*...*..*......**.
.***...*.....*..*..
..*..*.**..**......
...***.**..........
.......*...........
...................

*** Life<Cell> 18x16 ***

Generation = 0, Population = 71.
-0-00-----0---0-
------0----0----
00--0----------0
----0-0-------0-
--------0-------
--0---0---------
--0-0--0--------
-----0----0-----
---0------00----
-0--00-00--0----
-0-------00-0---
---0-------0----
--0----000-0--00
-0--00----00---0
------0-0----0-0
----00-00----0--
-0------00--0---
000----0-0000---

Generation = 32, Population = 44.
.-....*.........
.-..*..*........
.........1*.....
....**..***.....
-.....1...*.**..
1***...*.-*.....
.*......**..**..
..**............
................
................
................
...*............
..*.*...*.......
...**....*......
........*.......
......*...****..
-.....*...*.....
.....-....*.*...

*** Life<Cell> 7x11 ***

Generation = 0, Population = 41.
0-0--00000-
0-00000----
--0000----0
0000--000--
0-00-0---0-
000-0--0000
-0-------00

Generation = 22, Population = 29.
.**...****.
*..*.*.....
****...**..
****.....*0
...-*..**..
***......*-
.*...-....-

Generation = 44, Population = 4.
........**.
........**.
...........
...........
...-.......
...........
.....-.....

Generation = 66, Population = 4.
........**.
........**.
...........
...........
...-.......
...........
.....-.....

*** Life<Cell> 3x10 ***

Generation = 0, Population = 17.
-000-0----
-0--00--0-
000-000000

Generation = 20, Population = 6.
**........
*-.-.*.*..
......*.-.

Generation = 40, Population = 3.
**........
*-.-......
........-.

*** Life<Cell> 18x8 ***

Generation = 0, Population = 11.
---0--0-
--------
00------
--------
-----0-0
--------
--------
-------0
--------
0-------
--------
-------0
-------0
--------
--------
--------
-0------
--------

Generation = 13, Population = 59.
**.....1
.*00---.
*..*-*..
--*.*1..
*.1-....
**1...-*
**....-*
...*-.*.
-0-*-.0*
.-001.-1
.*1.**.*
-....*-.
011-**..
---*.***
-1-*.1.-
1--00*..
---1**.*
----0.0.

Generation = 26, Population = 32.
...***.1
..*...*.
.*..**..
.*..*.**
......**
..-*.*.*
.....*.*
.***....
...*.*.*
...*1...
......**
......1.
........
........
-.1..-.-
........
.-......
--..-.-.

Generation = 39, Population = 15.
.......-
........
........
**....*.
...*...*
...*..*.
..**....
........
........
.....**.
....*.*.
....**..
........
........
-.-..-.-
........
.-......
--..-.-.

Generation = 52, Population = 16.
.......-
........
........
........
........
........
........
........
......*.
.....*.*
...**..*
...**.**
...**.**
.....*..
-.-..1.-
........
.-......
--..-.-.

Generation = 65, Population = 19.
.......-
........
........
.....*..
...*...*
...*...*
..*..*.*
..***..*
........
.****...
.***....
........
........
........
-.-....-
........
.-......
--..-.-.

*** Life<Cell> 2x20 ***

Generation = 0, Population = 23.
----00-00000-0000---
-0-00-00-0--0000--00

Generation = 28, Population = 7.
-.*-......**........
..**......**.....-.-

Generation = 56, Population = 7.
-.*-......**........
..**......**.....-.-
